<?xml version="1.0" encoding="UTF-8" standalone="no"?>
<svg
   xmlns:dc="http://purl.org/dc/elements/1.1/"
   xmlns:cc="http://creativecommons.org/ns#"
   xmlns:rdf="http://www.w3.org/1999/02/22-rdf-syntax-ns#"
   xmlns:svg="http://www.w3.org/2000/svg"
   xmlns="http://www.w3.org/2000/svg"
   xmlns:sodipodi="http://sodipodi.sourceforge.net/DTD/sodipodi-0.dtd"
   xmlns:inkscape="http://www.inkscape.org/namespaces/inkscape"
   width="190.5mm"
   height="171.97917mm"
   viewBox="0 0 190.5 171.97917"
   version="1.1"
   id="svg951"
   inkscape:version="1.0beta2 (2b71d25, 2019-12-03)"
   sodipodi:docname="challenge_inc.svg">
  <defs
     id="defs945" />
  <sodipodi:namedview
     id="base"
     pagecolor="#ffffff"
     bordercolor="#666666"
     borderopacity="1.0"
     inkscape:pageopacity="0.0"
     inkscape:pageshadow="2"
     inkscape:zoom="1.0294055"
     inkscape:cx="-63.944698"
     inkscape:cy="396.86535"
     inkscape:document-units="mm"
     inkscape:current-layer="g927"
     inkscape:document-rotation="0"
     showgrid="false"
     showguides="true"
     inkscape:guide-bbox="true"
     inkscape:window-width="1920"
     inkscape:window-height="1155"
     inkscape:window-x="0"
     inkscape:window-y="23"
     inkscape:window-maximized="0"
     inkscape:snap-to-guides="false">
    <sodipodi:guide
       position="204.94988,85.856618"
       orientation="0,-1"
       id="guide1535" />
    <sodipodi:guide
       position="95.342203,178.15372"
       orientation="1,0"
       id="guide1537" />
    <sodipodi:guide
       position="198.22723,0.27914301"
       orientation="0,-1"
       id="guide921" />
  </sodipodi:namedview>
  <metadata
     id="metadata948">
    <rdf:RDF>
      <cc:Work
         rdf:about="">
        <dc:format>image/svg+xml</dc:format>
        <dc:type
           rdf:resource="http://purl.org/dc/dcmitype/StillImage" />
        <dc:title />
      </cc:Work>
    </rdf:RDF>
  </metadata>
  <g
     sodipodi:insensitive="true"
     style="display:inline"
     inkscape:label="Hexagon red"
     id="g927"
     inkscape:groupmode="layer">
    <path
       transform="matrix(1.2066709,-0.00469952,0.00495273,1.1449831,-24.867966,-27.845406)"
       inkscape:transform-center-y="-8.6800621"
       inkscape:transform-center-x="0.016326977"
       d="M 145.71791,171.65229 52.233752,171.32006 23.661522,82.30868 99.487076,27.628844 174.92207,82.846232 Z"
       inkscape:randomized="0"
       inkscape:rounded="0"
       inkscape:flatsided="true"
       sodipodi:arg2="1.5743501"
       sodipodi:arg1="0.9460316"
       sodipodi:r2="64.335365"
       sodipodi:r1="79.522881"
       sodipodi:cy="107.15122"
       sodipodi:cx="99.204468"
       sodipodi:sides="5"
       id="path925"
       style="fill:#7d1821;fill-opacity:1;stroke:#000000;stroke-width:6.80601;stroke-linejoin:bevel;stroke-miterlimit:4;stroke-dasharray:none;stroke-opacity:0.995968;paint-order:normal"
       sodipodi:type="star" />
  </g>
  <g
     sodipodi:insensitive="true"
     style="display:inline"
     inkscape:label="Plus"
     id="g1585"
     inkscape:groupmode="layer">
    <g
       id="g1614"
       transform="translate(0,-13.758336)">
      <g
         id="g1609">
        <rect
           y="90.952408"
           x="52.680862"
           height="17.797211"
           width="85.535576"
           id="rect1583"
           style="fill:#ffffff;fill-opacity:1;stroke:#000000;stroke-width:5;stroke-linejoin:round;stroke-miterlimit:4;stroke-dasharray:none;stroke-opacity:1" />
      </g>
      <rect
         transform="rotate(90)"
         y="-104.34725"
         x="57.083225"
         height="17.797213"
         width="85.535576"
         id="rect1583-1"
         style="display:inline;fill:#ffffff;fill-opacity:1;stroke:#000000;stroke-width:4.99999;stroke-linejoin:round;stroke-miterlimit:4;stroke-dasharray:none;stroke-opacity:1" />
    </g>
    <rect
       style="fill:#ffffff;fill-opacity:1;stroke:none;stroke-width:5.28485;stroke-linejoin:round;stroke-miterlimit:4;stroke-dasharray:none;stroke-opacity:1"
       id="rect1616"
       width="25.714001"
       height="12.720724"
       x="82.518974"
       y="79.738953" />
  </g>
  <inkscape:templateinfo>
    <inkscape:name>Genesys Dice</inkscape:name>
    <inkscape:author>Christian Nikolajsen</inkscape:author>
    <inkscape:date>2019-12-20</inkscape:date>
  </inkscape:templateinfo>
</svg>
